<?xml version="1.0" standalone="no"?>
<!DOCTYPE svg PUBLIC "-//W3C//DTD SVG 1.1//EN" "http://www.w3.org/Graphics/SVG/1.1/DTD/svg11.dtd">
<svg xmlns="http://www.w3.org/2000/svg">
<metadata>Generated by Fontastic.me</metadata>
<defs>
<font id="untitled-font-3" horiz-adv-x="512">
<font-face font-family="untitled-font-3" units-per-em="512" ascent="480" descent="-32"/>
<missing-glyph horiz-adv-x="512" />

<glyph unicode="&#97;" d="M510 257c-1-2-2-3-4-3-30 3-82 11-127 60-5 5-10 9-15 14-17 15-20 19-20-14 0-7 0-15 2-22 1-6 3-9 7-12 38-28 50-25 103-40 10-2 6-14-3-11-7 2-14 2-19 4-7 2-8-2-7-8 2-12 6-25 10-33 2-5-9-11-11-5-6 13-14 27-15 43 0 4-1 8-7 9-14 3-28 7-47 20-6 3-8 0-7-7 1-10 3-19 5-27 2-12 5-11 11-13 27-12 45-35 64-61 3-3 2-8-1-10-3-3-7 0-10 3-15 20-30 36-49 48-3 2-10 7-5-6 6-21 11-32 17-50 4-12-10-14-14-8-11 22-22 55-31 102-3 12-12 7-14 4-4-9-8-17-12-25-3-6-15 0-13 5 9 17 19 33 25 49 4 8-2 59-2 76 0 10-2 18-12 22-8 2-17 5-27 7-9 1-11-7-11-14l0-323c0-10-9-15-19-17-14-2-31 4-31 17l0 243c-1 7-5 11-10 9-12-6-20-11-31-18-12-8 18-40 17-68 0-8-3-17-8-25-1-3-4-7-6-10-8-15-23-35-21-59 0-2 1-5 1-7 2-5-8-9-10-3-3 7-3 15-3 23 0 14 5 27 11 39 5 7-1 9-3 10-8 5-25-8-38-20-9-8-16-15-17-16-5-4-13 6-8 9 7 6 12 11 18 15 3 3 6 6 8 8 11 11 20 20 37 20 6 0 15-3 20 3 2 2 3 6 4 13 0 8-10 23-17 35-9 15-14 11-19 6-3-4-6-8-10-13-2-2-4-5-6-7-14-18-29-30-45-38-27-13-56-15-80-13-1 0-2 1-3 1-1 1-1 1-2 2-1 5 0 11 6 10 13-3 47-2 69 12 6 3 10 7 14 11 4 5 9 11-1 17-17 10-38 21-60 20 0 0-1 0-1 0-1 0-2 1-3 3-1 4 0 9 4 9 24 1 47-8 67-18 6-4 15-7 23 4 1 1 2 2 3 3 8 11 14 18 25 27 11 9 7 14 0 19-20 15-54 20-72 2 0 0 0 0 0 0-3-2-7 3-8 7 0 2 0 3 2 4 24 22 66 17 93-2 7-5 14-9 26-3 24 12 35 15 35 24l0 179c6-5 16-8 27-8 8 0 16 2 22 6 0 0 0 0 0 0 1 0 1 1 1 1l0-87c0-4 2-11 11-12 26-3 55-14 55-14 13 0 25 4 36 9 8 3 16 7 22 11 3 1 5 1 7 0 2-1 4-3 5-5 2-3 1-7-3-9-5-4-11-7-17-10-6-3-11-6-17-8-5-2-5-7 2-12 7-6 13-12 19-18 2-3 7-4 11 0 4 4 8 8 12 11 8 6 17 11 26 14 9 3 19 3 30 2 1 0 2 0 3-1 2 0 3-2 4-3 1-5-2-10-9-9-5 1-11 1-16-1-9-3-17-8-25-15-4-4-9-8-13-12-2-3-2-9 1-12 6-5 12-11 19-16 4-3 8-5 12-5 7 0 13 2 19 7 6 5 11 12 17 21 0 0 0 1 1 1 4 6 13-1 11-6 0-2-1-3-1-4-4-10-10-18-17-24-1-1-2-2-4-3-14-9 8-13 22-15 6-1 10-1 11-1 7-1 6-10 4-14z"/>
<glyph unicode="&#98;" d="M190 466c9-46 16-104 21-164-4-2-10-4-16-6 1-2 1-4 1-6 1-2 1-4 1-7 5 2 11 3 15 4 1-5 1-9 1-14 9 3 16 5 22 7 2 32 3 64 6 93-5 36-10 70-16 100-2 12-38 6-35-7z m-127-135c-30-16-63-51-63-106 0-83 54-150 111-134 35 10 38 56 45 97 6 43 29 65 23 99-9 55-74 66-116 44z m386 43c-42 22-107 10-116-44-6-34 17-56 23-100 7-41 10-86 45-96 57-16 110 51 111 134 1 55-33 90-63 106z m-143 92c2 13-34 19-36 7-10-55-16-126-20-198l-1-7c-8-2-30-10-57-21-2-4-3-8-5-13 26 10 50 16 62 18-3-74-2-149 0-211 1-13 37-11 37 2-3 60-3 133-1 207 13-3 32-8 54-17 0 5-2 9-3 13-20 9-38 15-50 19l0 8c4 71 10 140 20 193z m-2-166c0-3-1-7-1-11 6 0 12 0 17-1-1 3-2 7-3 11-4 0-8 1-13 1z m-69-268c-1 3-1 5-2 8-1 31-2 66-2 103 0 28 1 58 1 88-5-1-11-3-16-5 3-65 4-130 2-183 0-7 8-10 17-11z"/>
<glyph unicode="&#99;" d="M340 154c-6-8-11-16-15-24 4 6 12 14 18 21 4 4 9 8 11 10-2-3-4-8-7-14-10-29-22-88-28-127-3-18-38-24-59-15-2 0-3 1-4 2-5 2-8 5-10 9-1 2-1 3-1 4-2 5-1 10 1 16 12 34 24 113 4 144-14 21-40 47-32 84 0 0 9 0 16-4 2-1 5-3 7-6 0-1 0-1 0-1-1-51 23-52 36-86 10-29 8-67 4-97l1 0c7 41 12 87-10 122-5 8-10 14-14 21-5 9-7 20-7 31 0 2 0 4 0 6 19 26 79-31 112 35 0 0 15 8 23 6 2 0 3-1 4-3 0-1 0-1 0-1 1-15-5-35-6-48-5-37-16-51-32-69-3-6-8-11-12-16z m41 166c-1-4-3-8-6-10 0 0-1-1-2-1-5-4-13-5-18-3-5-17-22-26-42-29-5-1-11-1-16-2-16 0-32 2-44 7-8 3-17 7-24 12-5 4-10 8-14 14-3 5-5 10-7 17-1 5-2 9-3 14 2 8 4 16 5 24 0 4 0 8 1 12 0 1 0 3 0 4 0 12-2 23-6 34 1-9 2-19 0-28 0-4-1-6-1-10-1-2-1-3-2-5 0-1 0-2 0-3-1 1-1 3-1 4-2 9-4 18-8 26-9 20-26 41-61 61 0 0-1 1-1 1-4 2-7 5-8 8-9 20 25 52 47 43 1 0 2-1 3-1 2-1 4-3 5-5 4-3 7-7 10-10 27-30 41-43 83-84 10-10 18-18 25-24l1-1c12-10 21-18 28-24 4-4 7-7 10-10l0-1c4-4 7-8 10-13 3-5 7-11 10-18-1 4-2 7-3 11 0 2-1 4-2 5-8 24-29 44-52 67 19-3 44-8 61-19 7-4 12-10 17-17 2-3 3-6 4-10 4-13 4-25 1-36z"/>
<glyph unicode="&#100;" d="M256 250c16 0 33-2 49-5l0 41c-4 1-9 2-14 4-16 5-16 20-16 53l0 91c0 14-40 14-40 0l0-90c0-34 1-48-15-53-5-2-10-3-14-5l0-41c17 3 33 5 50 5z m102 125c-20 1-33-10-33-33l0-217c0-24 12-38 33-41l112-16c19-3 36 7 38 32 2 145-96 274-150 275z m-205 0c-53-1-151-130-149-274 1-25 18-36 37-33l112 17c21 3 33 16 33 40l0 218c0 22-12 33-33 32z"/>
<glyph unicode="&#101;" d="M419 385c24 3 62-12 70-36 7-24-2-55-30-45-4 2-6 1-8-2 1-2 3-4 4-6 5-9 6-20 3-30-1-2-1-3-2-5 3-2 7-2 9 1 11 16 18 15 30 25 17 16 20 39 13 62-11 37-56 64-93 61-10-1-5-26 4-25z m-172-276c1-10 17-10 18 0 0 21-7 47 3 61 25 34 56 53 74 157 6 32 27 50 53 61-1 2-1 4-2 6 0 2 0 5 0 7-46-12-68-48-137-48-68 0-91 36-136 48 0-3-1-5-1-7 0-2-1-4-1-6 25-11 46-29 52-61 18-104 49-123 74-157 10-14 3-40 3-61z m-98 229c-7-7-13-15-17-21-15-18-27-4-46-15-11-6-19-19-16-31 4-12 33-15 45-3 10 10 8 32 21 45 4 5 10 9 18 12-2 5-3 9-5 13z m-56 47c9-1 14 24 4 26-37 2-82-25-93-62-7-23-4-46 13-62 12-10 19-9 30-25 2-3 6-3 9-1-1 2-1 3-2 5-3 10-1 21 3 30 1 2 3 4 4 6-2 3-4 4-8 2-28-10-37 21-30 45 8 24 46 39 70 36z m270-47c-2-4-3-8-5-13 8-3 14-7 18-11 13-14 12-36 21-46 12-12 41-9 45 3 4 12-5 26-16 32-19 10-31-4-46 15-4 5-10 13-17 20z"/>
<glyph unicode="&#102;" d="M296 67c-1 0-3 0-4 0 1 4 2 7 3 10 5 12 9 23 10 33 11 4 21 12 28 24 2-3 4-5 6-7 12-11 29-19 44-19 11 0 22 5 29 13 3 0 6-1 10-1 4 0 10 1 15 3-12-30-42-51-78-51l0 0c-7 0-12 1-18 3-6 2-12 4-20 4-7 0-11-4-15-7-3-3-6-5-10-5z m-85 0c-4 0-7 2-10 4-5 3-10 6-17 6-5 0-11-1-17-2-7-1-14-3-19-3-1 0-1 0-2 0-39 2-59 34-66 49 4 0 7-1 10-1 4 0 7 1 10 1 7-8 17-13 29-13 14 0 29 6 41 17 0 0 0-1 0-1 7-7 17-12 30-13 1-10 5-21 11-34 1-3 2-6 3-9-2-1-2-1-3-1z m43-66c-9 0-17 4-17 12-1 37-6 47-10 57l-1 3c-1 1-1 2-2 3-4 11-7 21-9 30 0 0 0 0 1 0 4-6 10-13 19-13 5 0 9 2 13 4 1 1 4 3 4 3 1 0 3-2 4-2 3-2 8-5 13-5 12 0 15 7 17 11 2 4 2 4 4 4 0 0 0 0 0 0-1-8-4-16-7-25-2-4-4-9-5-13-7-27-5-57-5-57 0-8-10-12-19-12z m-19 106c-2 0-5 3-8 7-4 5-9 10-15 10 0 0-4 0-6 0-1 0-3 0-5 0-10 1-17 4-22 10 5 7 8 14 10 22 12 9 16 22 19 31 0 1 0 2 1 3 4-2 11-4 19-4 12 0 23 6 28 15 5-9 16-15 28-15 8 0 15 3 19 4 0-1 1-2 1-2 3-10 7-23 19-32 0-3 1-6 2-9-6-12-13-20-22-23-3-1-6-2-9-3-2 0-3 0-4 0-9 0-12-5-14-9-2-3-3-5-8-5-1 0-2 1-4 2-2 2-6 4-12 4-4 0-8-2-11-4-2-1-4-2-6-2z m-153 145c-3 1-6 3-9 4-12 3-16 13-19 23-3 7-6 15-13 20-3 1-5 2-7 3-4 2-7 3-10 7-3 4-6 8-9 12-3 13 0 19 4 26 2-3 4-6 8-9 7-6 13-9 19-9 2 0 4 1 7 1 8 4 5 14 4 17 0 2 0 4-1 5l0 1c0 1 0 3 0 5 0 3 1 6 3 8 2 2 4 4 7 5 3 1 6 2 9 4 3 3 6 8 7 15 1 3 1 6 1 10 3-4 8-6 13-7 1 0 2 0 3 0 4 0 6 1 10 1 0 1 2 1 2 1 2 0 3-1 4-1 0 0 1 0 2-1 0-2 1-3 2-5 2-3 3-5 4-8 1-5-3-11-7-14-3-2-7-3-10-4-5-1-9-2-13-2-8-2-15-6-18-12-5-8-4-17-2-22 0-2 0-3 0-4 1-3 2-6 2-8 0-3 0-5 0-8-1-3-2-5-4-7-1-1-2-1-3-1-1 0-1 1-1 1 0 0-1 1-1 2-2 1-3 3-3 4-2 3-2 7-1 8 0 0 0 0 1 0 2 0 3 2 3 4 0 1-1 3-3 3-4 0-6-2-7-3-4-5-2-12-1-16 1-2 2-3 4-5l0 0c0-1 1-1 2-2 1-1 2-2 3-3 3-4 8-5 12-7 6-2 6-6 6-14 0-2 0-5 0-7 0-1 0-2 0-4 0 0 1-2 1-2-1-2-1-4-1-5z m163 184c-1 1-2 2-3 4-2 3-3 8-4 12l-1 2c0 1 0 2-1 3 0 1 0 2-1 3 0 1 0 3 0 5 0 0 0 2 0 2 3 2 6 4 9 6 0 1 1 2 1 2 0 0 0 0 0 0 0-1-2-24 1-34 0-1 0-1 0-3 0 0-1-1-1-2z m-225-157c0 3 0 6 0 9 0 2 0 4 1 7 0 2 0 3 0 5 3-2 6-5 8-6 2-1 3-2 4-2l0-1c3-2 7-3 9-6 0-1 1-3 2-5-4 1-8 2-12 2-1 0-2 0-3 0-4-1-6-2-9-3z m204-79c-7 0-12 2-15 3-3 2-5 3-7 3-1 0-2 0-3-1-1 0-2 0-2 0-2 0-4 0-6 0l-2 0c-1 0-2 0-3 0-2 0-3-1-5-1 0 0-1 0-1 0-1 0-2 1-4 1 0 1 0 1-1 1-3 2-6 3-8 5-1 1-1 1-2 2-2 1-3 2-4 4-1 2-2 3-4 4-2 3-3 6-4 11-2 4-3 8-3 12 0 4 2 7 5 9 1 1 2 1 4 1 2 0 5-1 8-3l2-2c2-2 5-4 9-5 3 0 6-1 9-1 1 0 1 0 2 0l1 0c1 0 1 0 2 0 2 0 3 1 3 3 0 1-1 2-2 3 0 0 0 0-1 0-2 0-3 0-5 0-1 0-2 0-2 0-3 1-5 2-8 3-1 1-3 2-4 3-3 2-5 4-9 6-2 0-4 0-6 0-3 0-6 0-9-2 0 1-1 2-2 3-2 2-4 3-6 4l0 0c0 1-1 1-1 2-3 1-5 3-9 3l-1 0c-2 0-4 1-5 1-1 0-2 0-3 0-3-1-6-3-8-4-4-3-7-9-7-16 0-1 0-1 1-2 1-1 1-1 2-1 1 0 2 0 3 1 0 1 1 3 2 4 1 2 2 4 4 6 1 1 2 2 4 3 0 0 1 0 2 0 1 0 1 0 2 0l3 0c1 0 3 0 5 0 2 0 4-2 6-3 2-1 3-3 4-5 0 0 0 0 0-1-2-2-3-5-3-8-1-8 2-19 7-29 1-1 2-2 3-3 0 0-1 0-1 0-1-1-2-1-3-1-2 0-6 1-15 8-2 1-4 2-7 2-1 0-2 0-3 0-1-1-2-1-3-1-1 0-2 1-3 1-6 2-10 8-14 13-3 4-5 7-8 9-1 2-2 3-2 4 0 5-1 8-1 13 0 2 0 4 0 7 0 1 1 3 1 4 0 5-1 8-2 11-2 3-5 6-9 7-1 1-4 2-5 2 1 1 2 2 3 2 4 5 5 12 5 17 0 4-1 8-2 12-1 4-2 7-1 11 0 4 0 7 3 10 3 3 5 5 9 6 2 0 5 0 7 1l0 0c2 0 4 0 5 0 4 1 8 2 12 4 7 3 11 8 14 15 0 1 1 3 1 4 1 2 3 3 5 4 1 1 2 2 3 3 1 0 2 0 3 1 1 0 1 0 2 0 2 1 3 2 3 4 0 1-2 2-3 3-1 0-1 0-2 0-4 0-7-2-12-6 0 2-1 4-2 6-2 3-4 6-4 9-1 3-1 7-1 11 0 1 0 3 1 4l0 2c0 1 0 2-1 3-1 0-1 1-2 1-1 0-2-1-3-2-3-4-3-10-3-16-2 1-3 1-4 1-2 0-2 0-4 0l0 0c-2-1-4-1-6-1-2 0-3 0-5 1-2 1-4 2-7 4-4 4-6 11-5 16 1 1 1 2 2 4l1 1c0 1 1 2 1 3 0 1 0 2 1 2 1 2 2 3 4 5 1 1 3 2 4 4 0 0 1 2 0 3-1 1-2 2-3 2l-1 0c-9-2-13-10-15-16 0-1-1-2-1-3-2-5-2-11-1-17-1-3-1-6-1-9 0-1 0-2 0-3 0-1 0-1 0-2 0-1 0-3-1-5-1-6-4-11-9-13-1 0-2 0-2 0-2-1-4-2-6-4-2-1-4-4-5-7 0 0-1 0-1-1-1 3-3 5-5 7-1 1-2 1-3 1-1 0-2 0-3-2-1 0-1-1-1-3 1-2 2-5 3-7 0 0 1-1 2-2 1-3 3-7 4-11 0 0 0-1 0-2 0-4 1-8-1-10-1 0-1 0-2 0-3 0-5 1-6 1-3 2-7 4-9 7-3 2-5 5-7 8-1 0-1 1-2 2-2 16 2 34 11 45 1 0 1 0 2 0 1 0 2 0 3 0 1 0 1 0 2 0 0 0 1 0 1 0 2 0 3 0 4 0 1-1 3-2 4-3 2-2 3-3 4-3 1-1 1-1 1-1 2 0 3 1 4 2 0 2 0 3-1 4l-1 1c-2 3-5 5-7 7-2 0-4 1-6 1-1 0-2 0-3 0 0 0-1 0-1 0 7 21 24 39 52 54 1 0 1-1 2-1 1-2 3-3 4-5 1-2 2-4 3-6 0-1 1-2 1-3 1-1 1-2 1-3 1-1 2-3 4-3 1 0 2 1 3 3 1 4-1 8-2 11-1 1-2 3-3 4 1 0 1 0 2 0 3 0 7 1 10 2 2 1 4 1 5 2 2 0 4 1 7 1 3 0 6-1 10-1 2-1 4-1 6-2 2-1 2-1 4-2 1-1 2-1 3-2 1 0 1 0 2 0 1 0 2 1 3 1 1 2 1 3 0 4-2 4-7 6-12 7-4 1-8 2-14 2l-2 0c-5 0-10-1-16-3-3-1-5-2-8-2-1 0-2 0-2 0-2 0-3 0-4 1 0 0-1 1-1 1 0 1 0 1 0 1 5 8 13 23 38 23 2 0 5 0 8-1l1 0 0 1c0 0 0 1 1 1 0-1 0-1 0-1 3-5 7-9 13-12 1-1 2-2 4-3 0 0 1 0 1 0 1-1 2-1 3-2 2-1 5-2 7-4 2-3 5-5 6-8 1-1 2-3 2-5 1-2 2-4 3-6 1-1 2-1 3-1 2 0 4 2 4 3 0 3-2 7-3 10l-1 0c-1 4-5 7-7 10 3 0 6 0 8 1 2 0 3 1 3 3 0 1-1 3-3 3-2 0-4 0-7 1l-2 0c-4 0-7 1-10 2-4 1-10 5-14 9-1 1-1 2-2 3 1 0 1 0 1 0 1 0 2 0 2 0 3 0 5 1 8 3 6 4 16 11 33 11 8 0 20-1 29-6 7-4 13-10 16-17 0 0 0 0 0 0-1-1-2-3-3-4-1-2-2-3-3-5-2-2-5-4-9-4-2 0-4 0-7 2-3 1-5 4-8 7-1 3-3 6-6 8-1 0-1 1-2 1-2 1-4 3-4 4 0 2 2 5 3 7l0 1c1 1 1 2 0 4 0 0-1 1-2 1-1 0-1 0-2 0-4-3-6-8-6-11-2-5 3-9 6-11 4-3 6-6 8-10 3-4 7-7 11-9 3-2 7-3 10-3 0-4 0-8 1-12 1-4 2-9 4-14 1-1 1-2 1-3-5 1-10 2-13 2 0 0-1 0-1 0-2 0-3 0-3 0-2 0-3-1-6-1-2 0-2 0-4 0-1 0-3 0-4 0-3 0-6 0-9 2-3 0-5 2-8 3-2 1-4 3-7 4-3 1-6 1-10 1-1 0-2 0-4 0-2 0-4-1-7-2-1 0-2-1-2-2-1 0-1 0-1 0-1-1-2-2-2-3 0-2 1-3 3-3 0 0 0 0 0 0 2 0 3 0 4 1 1 1 3 1 6 1 1 0 2 0 3 0 0 0 2 0 2 0 3 0 5-1 7-2l1-1c0 0 2-1 2-1 4-2 7-4 12-5 2-1 4-1 6-1-1-1-2-2-3-3 0 0-2-2-2-2-2-2-4-5-7-6-3-2-6-3-10-4-1 0-2 0-3 0-1 0-3-2-3-3 1-2 2-3 4-3 7 0 16 1 23 8 1 1 2 2 4 3 1 2 3 4 4 5 3 3 7 5 11 6 1 0 2 0 4 0 2 0 5 0 8-1 5-1 8-3 11-5 2-1 4-3 5-6 0-2 0-5 0-9 0-1 0-3-1-4 0-2 0-4 0-6 0-4 0-7 0-10-4 6-10 10-19 10 0 0-1 0-1 0-7 0-12-5-15-9 0 0-1-1-1-1-2-2-3-4-5-5 0 0-1 0-2 0-1 0-3 0-4 0-5 2-9 2-13 2-2 0-5 0-7-1 0 0 0 0 0 1 0 3-4 4-7 5-1 0-2 0-2 1-1 0-2 0-3 1-2 0-3 1-4 2-2 1-3 2-4 4-2 3-3 6-4 11 0 2 0 4 0 5l0 2c0 1-1 3-1 3-1 1-2 2-3 2-1 0-1 0-1 0l0 0 0-1c-1 0-2-1-2-1 0-1 0-2 0-2 0-1 0-2 0-3l0-1c0-1 0-4 0-6 1-5 2-9 4-13 2-4 6-7 11-9 2-1 4-2 7-3 0 0 1 0 2 0 2 0 3-1 3-1-2-2-4-4-4-6-2-4-1-8 0-11 0-2 1-4 1-6 0-2 1-3 3-3 2 0 3 1 3 3 0 2 0 3 0 4 0 3 0 6 1 9 0 4 2 5 5 6 1 0 2 0 3 0 3 0 5 0 8-1 2 0 4-1 6-1 1 0 1 0 2 0 7 0 12 4 14 8 4 5 7 8 11 8 0 0 0 0 1 0 4-1 7-3 9-7 3-3 5-8 7-12 1-2 2-6 1-9l-1-3 2 0c-1-2-1-5-1-7-1-6-1-12-1-18 0-2 0-4 0-6-1 2-1 3-1 5-1 1-1 2-2 3l0 1c0 2-1 5-3 7-2 2-4 4-7 6-4 3-8 3-13 3-1 0-2 0-3 0l-5 0c-2 0-4 0-7 1-2 0-2 1-4 3-1 0-2 1-2 2-1 0-2 1-2 1-2 0-3-1-3-2-1-1-1-2 0-3 1 0 1-1 1-1 1-2 2-3 4-5 2-1 5-2 8-3 2 0 4 0 5 0l5 0c3 0 7 0 9-1 5-3 7-7 9-12 2-5 4-10 8-14 0 0 0 0 0-1-1 0-1-1-1-1-1-1-1-2-1-2-4-3-10-5-17-6-1 0-3 0-4 0-5 0-10 1-14 1-4 1-9 1-13 1-3 0-6 0-8 0-1 0-1 0-2 0-3 0-6 2-9 4-4 2-10 7-9 12 0 2 4 3 5 4 1 0 2 0 3 1 2 0 5 0 7 1 6 3 7 10 7 15 0 2-2 3-4 3-1 0-3-1-3-2-1-1-1-2-2-3 0-2 0-3-1-4-1-2-4-2-6-2-2 0-3-1-4-1-3-1-6-3-8-5 0 1-1 2-2 2-1 2-2 2-4 3-1 2-2 3-4 4-1 0-1 1-2 1-2 2-4 5-3 7 1 0 2 2 3 2 1 1 2 2 3 4 2 2 3 5 3 8 0 1 0 2 0 2-1 1-2 1-3 1-1 0-3-1-3-3 0-2-2-4-5-7l1-1c-2-2-5-4-5-7-1-4 0-6 2-10 0 0 0 0 0 0-7-2-11-8-13-10-1-2-1-3-2-4-1-4-2-7-6-8-2 0-2-2-2-3 0-1 2-2 3-2l0 0c5 0 8 3 11 8l1 1c1 3 2 6 5 8 1 2 4 2 6 2 3 0 6 0 8-2 1-1 2-2 2-4 1-2 2-4 4-6 2-7 10-11 12-13 1 0 1 0 2-1-5-1-8-4-11-7l-1 0c-4 0-8-1-12-1-3-1-6-2-8-4-1 0-2-1-3-2-3-2-7-3-10-4-2 0-4 0-6 0-1 0-3 0-3 0-6 1-9 6-12 12-1 3-2 6-3 10-1 1-1 2-1 3 0 2-1 4-1 6 0 1-2 2-3 2-2 0-4-1-4-3-1-3 0-6 1-9l0-1c1-3 2-7 4-11 3-6 7-13 14-16 3-1 6-2 9-2 5 0 10 2 15 4 3 1 7 3 9 5l1 0c3 2 8 2 13 2 0 0 0-1 0-2 3-6 11-9 17-12l2 0c2-1 5-2 7-4 1-1 2-1 3-2 1-1 2-2 3-3 2-2 6-2 9-2 1 0 2 0 3 0 2 0 3 2 3 4 0 2-1 4-4 4 0 0 0 0-1 0 0 0 0 0-1 0-2 0-4 2-6 4-1 1-3 2-4 3-3 3-7 4-10 5-4 1-7 3-10 5-1 1-3 2-2 4 0 2 3 4 5 5 5 3 12 4 19 4 1 0 1 0 2 0 4 0 9 0 13-1 4 0 9 0 13 0 4 0 8 0 11 0 5 1 9 3 13 5 0-3 1-6 1-9 0-4 1-8 1-12 0-1-1-2-1-2-1-1-2-3-2-4-2-3-4-4-7-5-1 0-3-1-4-2-2 0-3-1-5-2-1 0-2-2-2-3 0-1 1-1 1-1 1-1 1-2 2-2 7 0 12 2 17 6 1 0 1 0 2 1 0-2 0-5 1-9 0-3 0-7 0-12 0-4-1-8-1-12 0-1 0-2 0-3 0-1 0-3 1-4 0-1 0-3 0-5-3 2-5 2-8 2-1 0-1 0-2 0-4 2-6 4-8 6-1 1-2 3-2 4-1 2-1 4-2 5-2 4-6 6-10 6l0 0c-2 0-3 0-4-2 0-1 0-2 1-3 1-1 1-2 2-3l1 0c2-1 2-3 3-4 1-2 2-5 3-7 0-1 1-2 2-3 1-1 3-3 5-4-2-1-3-3-4-4-1-2-2-4-3-5-3-3-8-4-13-4-1 0-3 0-4 0l-2 0c-1 0-2-1-3-2 0-2 1-3 2-3 3-1 6-2 9-2 3 0 7 1 9 2 5 2 9 6 12 10l1 0c1 2 2 4 4 4 1 1 2 1 3 1 1 0 3-1 4-1 1 0 2-1 3-1-1-2-2-4-4-5l0-1 0-1c0 0 0-1 0-1 0-8-6-14-17-14z m-99-79c-8 0-16 4-20 11 0 3 1 5 2 6 1 2 2 3 3 5 2 0 4-1 7-1 0 0 1 0 2 0 2 0 4 1 6 1 1 0 2 0 3 0 2 0 4-1 7-2l2 0c2-1 4-1 4-1 3 0 4 2 4 2 0 1 0 3-3 5-5 3-13 4-18 4l-1 0c-1 0-2 0-3 0-1 0-3 0-4 0-1 0-1 0-2 0-2 0-5 1-8 3-2 1-3 3-4 5l-2 3c-1 1-2 3-3 5-1 1-2 3-3 4-1 3-4 6-8 9 0 1-1 1-2 1-1 0-2-1-3-2 0-1 0-3 1-4 3-2 5-6 6-9l1-1c1-1 1-2 1-3l1-1c2-5 5-10 10-13 0-1 0-1 1-1-1-1-1-3-2-5-1-2-2-3-3-5-3-2-7-3-11-3-4 0-9 1-13 3-11 5-21 15-27 23 4 5 4 11 4 15l0 1c1 3 1 6 3 8 1 0 1 0 2 0 1 0 2 0 4 0 1-1 2-1 4-1l0 0c2 0 4 1 4 3 1 1 0 3-2 4-3 2-6 2-9 2-4 0-7-1-10-4-2-2-3-5-3-8-1-2-1-3-1-5 0-2 0-4 0-6-1 0-1-1-1-2-1 1-3 2-5 2-6 2-16 5-16 27 0 4 1 9 5 18 2 0 5 0 7 1 3 1 6 3 8 5 1 1 2 1 3 2 1 0 1 1 2 1l1 0c2 2 4 3 6 4 1 0 2 0 3 0 3 0 6 0 9-1 7-3 13-7 19-11l1-1c1 0 2-1 3-1 1 0 2 1 3 2 1 1 0 2 0 4-2 2-4 4-6 5-1 0-2 1-2 1-4 3-7 5-11 7-4 1-10 3-16 3-3 0-6-1-8-2-3-1-6-3-8-5-4-2-8-5-12-5-1 0-2-1-3-1-1 1-2 3-3 5-3 5-7 11-7 18 0 6 1 10 2 15 1 2 1 3 1 5 1 1 2 2 3 3 2 2 5 3 9 4 2 0 5 1 8 1 2 0 3 0 4 0 2-1 3-1 4-3 1-2 1-3 3-4 3-7 7-13 11-17 5-4 11-5 16-6 5-1 9-2 12-5 1 0 1-1 2-1 1-1 3-4 5-6 4-7 10-16 19-19 2-1 4-1 6-1 3 0 5 0 6 1 1 0 2 0 3 0 0 0 1 0 2 0 1-1 3-2 4-4 2-1 4-3 7-5 0 0 2 0 2-1 1 0 2 0 3 0 3 0 5 1 7 1 1 1 3 2 4 2 2 0 4-2 5-3l1-1c2-2 5-4 8-6l1 0c0 0 0 0 1 0 1-1 3-1 5-1 2 0 4 0 6 1 2 1 4 1 5 1 2 0 3 0 4 0 0 0 0 0 0 0-1-2-1-4-2-6-3-8-6-19-17-26-1 1-3 3-5 4-1 1-3 2-4 3-2 1-3 2-5 3 0 0-1 1-1 1-5 4-10 6-15 6l-2 1c-2 0-4 0-6 2-2 0-3 3-4 4l-1 1c-1 3-3 5-6 7-1 2-3 2-5 3-1 0-1 0-2 0-2 0-4 0-6-1l-1 0c-2 0-4 0-7 0-1 0-2 0-4 0-1 0-2 0-2 0-3 0-5 0-7 0-4 0-7 0-9-1-7-4-5-10-5-13 1-2 2-3 3-3 1 0 2 1 3 1 1 1 1 2 1 3l0 1c-1 3-1 3 0 4 2 0 5 1 6 1 1 0 1 0 2 0 2 0 4-1 6-1 3 0 5 0 8 0 1 0 1 0 2 0 1 0 3 0 5 1 1 0 3 1 4 1 1 0 2 0 3-1 0 0 0 0 1-1 1-1 2-2 3-4 1-2 2-4 4-6 3-4 8-5 13-6l1-1c2 0 4 0 6-1 2-1 3-2 5-3l0-1c1 0 2-1 2-1l4-3c2-1 4-3 6-4 1 0 1 0 1 0l0-1c1-1 2-2 3-3 0-1 0-1 1-2-1-2-1-3-2-5-2-3-4-7-7-10-9-10-23-18-36-18z m142 315c0 1-1 2-1 3 0 1-1 2-1 2 4 10 1 33 1 34 1 0 1-1 2-2 3-2 5-5 9-6 0 0 0-2 0-2 0-2 0-4-1-5 0-1 0-1-1-2l0-1c0-1 0-2-1-3l0-2c-1-4-2-8-5-12 0-2-1-3-2-4z m120-315c-20 0-39 17-45 32 0 0 0 1 0 1 0 0 0 1 1 2 0 0 1 1 2 2 1 1 1 2 2 2 2 1 4 3 6 4l0 0c2 1 4 3 6 4 2 2 4 3 6 4 1 1 3 1 5 1l2 1c4 1 9 2 13 6 1 2 3 4 3 6 2 2 2 3 4 4 0 1 2 2 3 2 2 0 3-1 5-1 1-1 3-1 5-1 0 0 1 0 2 0 2 0 5 0 7 0 2 1 4 1 7 1 0 0 1 0 1 0 2 0 3-1 4-1 1 0 2 0 2 0 1-1 2-1 1-3 0 0 0-1 0-1l0 0c0-1 0-2 1-3 0-1 1-1 2-1 1 0 2 0 2 1 0 0 1 0 1 1 1 3 2 10-5 13-2 1-4 2-7 2-1 0-1 0-1 0-2 0-5-1-7-1-1 0-2 0-3 0-1 0-3 0-4 0-2 0-5 0-7 1l-1 0c-2 1-3 1-5 1-1 0-2 0-3 0-6-2-9-6-11-10l0-1c-1-2-3-4-4-5-2-1-5-1-7-2l-2 0c-6-1-11-3-16-7-2-1-3-2-5-3-1-1-2-2-3-3-2-1-4-2-6-4-1 0-2 1-2 1-9 7-12 17-15 25-1 2-1 4-2 5 0 0 0 0 1 0 1 0 2 0 3 0 2 0 4 0 5 0 2-1 5-2 7-2 2 0 3 1 4 1 1 0 1 0 1 1 4 1 7 4 10 6l0 0c2 2 4 4 5 4 2 0 4-1 5-1 2-1 4-2 7-2 1 0 2 0 3 0 3 2 6 4 9 6 1 1 3 3 5 4 0 0 1 0 1 0 1 0 2 0 3 0 2-1 4-1 6-1 2 0 3 0 5 1 0 0 1 0 1 0 9 3 15 11 19 18 2 3 3 5 5 7 0 0 1 1 2 1 3 2 7 3 11 5 6 1 11 2 16 6 5 4 8 9 11 16 2 2 3 3 4 4 1 2 2 3 3 3 1 1 3 1 4 1 3 0 6-1 8-2 4 0 8-2 9-4 1-1 2-2 3-3 0-2 0-3 1-5 1-5 2-9 2-15 0-7-3-13-7-18-1-2-2-3-3-5-1 0-2 0-3 0-4 1-7 3-11 6-3 2-6 4-9 5-2 1-5 2-8 2-6 0-12-2-15-3-4-2-8-4-11-7-1 0-1-1-2-1-2-1-5-3-6-6-1-1-1-2 0-3 1-2 2-2 3-2 1 0 2 0 2 1l2 1c11 8 14 9 19 10 3 1 6 2 8 2 1 0 3 0 3-1 3 0 5-2 7-3 1 0 2-1 3-2 0 0 1-1 2-1l0-1c3-1 6-4 9-4 2-1 4-2 7-2 4-8 5-14 5-17 0-23-10-25-16-27-2-1-3-1-5-2 0 0 0 0 0 1-1 2-1 4-1 5 0 2-1 4-1 5 0 3-1 6-3 9-3 3-6 4-10 4-3 0-6-1-9-3-2 0-3-2-2-4 0-2 2-3 4-3l0 0c1 0 3 1 4 1 1 0 3 1 4 1 0 0 1 0 2-1 2-2 2-5 2-7l0-1c1-4 1-10 4-14-6-7-14-16-24-22-6-3-11-5-16-5-4 0-8 2-11 4-1 1-2 3-3 5-1 1-1 3-2 4 0 0 1 0 1 1 5 3 7 9 10 13l0 1c1 1 1 2 2 3 2 4 3 8 7 11 1 0 2 2 1 3-1 1-2 2-3 2-1 0-2 0-2-1-5-3-8-8-11-13 0-2-2-4-3-5l-1-3-1 0c-1-2-2-4-4-5-3-2-5-3-8-3-1 0-1 0-2 0-1 0-2 0-4 0-1 0-2 0-3 0l-1 0c-5 0-13-2-18-4-3-2-3-4-3-5 1-1 2-2 4-2 0 0 2 0 4 1l2 0c2 1 5 2 7 2 1 0 2 0 3 0 2 0 4 0 6 0 1 0 2 0 2 0 3 0 5 0 7 0 1-2 2-3 3-5 1-1 2-3 2-6-4-6-12-10-20-10z m102 235c-1-1-1-2-2-2-2-3-4-6-7-8-2-2-6-5-9-7-1 0-4-1-6-1-1 0-1 0-2 0-2 2 0 6 1 9 0 0 0 2 0 2 1 4 2 7 4 11 0 0 1 1 1 2 1 2 3 4 4 7 0 1 0 2-1 3 0 1-2 1-3 1-1 0-2 0-3-1-2-2-3-4-5-6 0 0 0 0 0 1-1 3-3 5-6 7-2 1-4 2-6 3 0 0-1 0-2 1-4 2-8 6-9 13-1 2-1 3-1 5 0 0 0 1 0 1 0 1 0 3 0 3 0 3 0 6-1 10 2 5 1 12-1 17 0 1-1 2-1 2-3 6-6 15-15 17l-1 0c-1 0-2-1-3-2 0-1 0-2 1-4 1-1 2-2 3-3 2-2 4-3 5-5 0-1 0-1 0-2l0 0c1-1 1-2 2-3l0-2c1-1 2-2 2-3 1-5-1-12-5-16-2-2-5-4-7-4-1-1-3-1-4-1-2 0-4 1-6 1l-1 0c-1 0-2 0-3 0-1 0-3 0-5 0 1 6 0 11-3 15 0 2-1 2-2 2-1 0-2 0-3-1-1-1-1-2-1-3l1-1c0-2 1-4 1-5 0-3 0-7-1-11-1-3-3-5-4-9-1-2-3-4-3-6-4 4-8 6-11 6-1 0-2 0-2 0-2 0-3-2-3-3 0-2 1-3 3-3 0-1 1-1 2-1 1-1 2-1 3-1 1-1 2-2 4-2 2-2 3-3 4-5 0-1 0-3 1-4 3-7 7-12 14-15 4-1 8-3 12-3 2-1 3-1 5-1 2 0 4-1 7-1 3-1 7-3 9-6 3-2 3-6 4-9 0-4-1-8-2-12-1-3-2-7-2-11 0-6 1-13 5-17 1-1 2-2 3-3-1 0-4-1-4-1-5-2-8-4-10-7-1-4-2-7-2-12 0-1 1-3 1-4 0-2 0-5 0-7 0-4-1-8-1-12 0-2 0-3-1-5-3-2-6-6-8-9-4-5-8-10-14-13-1 0-2-1-4-1 0 0-1 0-2 1-1 0-2 0-4 0-1 0-1 0-3 0-1-1-2-1-4-2-9-7-13-7-15-7-1 0-2 0-3 0 0 0 0 0 0 0 1 1 1 2 2 3 2 3 3 6 5 10 2 7 3 14 3 19-1 3-2 6-3 8 0 0 0 2 0 2 1 1 2 2 4 4 2 1 4 2 6 3 1 0 3 0 5 1l2 0c1 0 2 0 3 0 1 0 1 0 2-1 1-1 3-2 4-3 1-2 2-4 4-5 0-2 1-3 2-4 1-1 2-1 3-1 1 0 1 0 2 0 1 1 1 2 1 3-1 6-4 12-8 15-2 2-4 4-7 4-1 0-2 0-3 0-2 0-4 0-5 0l-2 0c-3-1-6-2-8-4-1 0-1-1-2-1-2-1-3-2-5-4-1-1-2-2-3-3-3 2-5 2-9 2-2 0-3 0-5 0-4-2-7-4-10-6-1-1-2-2-3-3-3-1-5-2-8-3-1 0-4 0-4 0-1 0-2 0-4 0-1-1-2-2-2-4 0-1 1-3 2-3 2 0 4 0 6 0 0 0 1 0 1 0l1 0c3 0 5 1 7 1 4 1 6 3 9 5 1 1 1 1 1 1 3 3 6 4 9 4 1 0 2 0 4-1 2-2 4-5 4-9 0-5-1-9-2-13l-1-2c-1-3-2-6-4-8-2-3-4-5-7-8-1-1-1-1-2-1-3-2-5-4-9-6 0 0 0 0-1 0-1-1-3-1-4-2 0 0-1 0-1 0-2 0-3 0-5 1-4 1-5 1-6 1l-2 0c-2 0-4 1-6 1 0 0-2 0-3 0-1 0-1 0-2 0-2 0-5-1-7-2-4-2-8-4-15-4-4 0-7 0-10 2-3 1-5 4-7 6 0 2-1 3-1 5 0 0 0 1 0 1l0 1-1 1c-1 1-2 3-3 5 1 1 2 1 3 1 1 1 2 1 4 1 1 0 2 0 2 0 2-1 4-2 5-4l1-1c3-4 7-8 11-10 3-1 6-1 10-1 3 0 6 0 9 1 1 0 2 2 2 3-1 2-2 3-4 3l-1 0c-1 0-3 0-4 0-6 0-10 1-13 4-1 1-2 3-3 4-1 2-2 3-4 5 2 1 4 2 5 4 2 3 3 5 4 8l1 1c0 2 1 3 3 4l1 1c1 0 2 1 2 2 1 1 2 2 1 4-1 1-2 2-3 2l-1 0c-4-1-7-3-9-6-1-2-2-4-3-5l0-2c0-1-1-2-2-3-2-2-4-4-8-5 0 0-1 0-2 0-2 0-5-1-8-3 0 2 0 3 1 5 0 2 0 4 0 5 0 1 0 1 0 2 0 4 0 8 0 12 0 4-1 9 0 12 0 3 0 6 0 8 5-5 11-7 19-7 2 0 3 1 3 2 0 1 0 2 0 2-1 1-1 2-2 2-1 0-3 1-4 1-2 1-3 1-5 2-1 2-3 3-6 6 0 0 0 0 0 0 0 2-1 4-2 5 0 1-1 1-1 2 0 4 0 8 1 12 0 3 0 7 0 10 4-3 9-5 14-5 3-1 6-1 10-1 5 0 9 0 14 1 4 0 8 0 13 0 1 0 1 0 2 0 7 0 14-1 18-4 3-1 5-3 6-5 0-1-2-3-3-4-3-2-6-4-9-5-4-1-7-3-11-5-1-1-2-2-3-3-3-2-4-4-7-4 0 0 0 0-1 0 0 0 0 0-1 0-2 0-4-2-4-4 0-2 1-4 4-4 1 0 2-1 3-1 3 0 6 1 9 3 1 1 2 2 3 3 1 1 1 2 2 2 2 2 5 3 8 4l1 1c6 2 14 5 17 12 0 0 1 1 1 2 4 0 9 0 12-2l1-1c3-2 6-4 10-5 4-1 10-3 15-3 3 0 6 0 8 2 8 2 12 9 15 16 2 4 3 8 4 11l0 1c0 2 1 6 0 8 0 2-1 4-3 4-2 0-3-1-3-3-1-1-1-3-1-5-1-1-1-3-1-4-1-4-3-7-4-10-2-5-5-11-11-12-1 0-2 0-3 0-2 0-4 0-7 1-4 1-7 2-10 4-1 0-1 0-2 1-3 1-6 3-9 4-4 1-7 1-12 1l-1 0c-2 3-7 6-11 7 1 1 2 1 2 1 2 1 10 6 13 13 2 2 2 4 3 6 1 2 1 3 2 4 2 1 5 2 8 2 2 0 5-1 6-2 3-2 4-5 6-8l0-2c2-4 6-7 11-8l1 0c1 0 2 2 3 3 0 1-1 3-2 3-4 1-5 4-6 8-1 1-1 2-2 3-2 3-5 9-13 11 0 0 0 0 0 0 2 3 3 7 2 10 0 3-3 5-5 7l0 0c-3 3-5 5-5 8-1 1-2 3-3 3-1 0-2-1-2-1-1-1-1-2-1-3 0-3 1-6 3-8 1-1 2-2 3-3 1-1 2-2 3-3 1-2 0-5-3-7 0 0-1-1-1-1-2-1-3-2-4-4-2-1-4-1-5-3-1 0-1-1-2-2-2 2-4 4-7 5-1 0-3 0-4 1-3 0-5 0-6 2-1 1-1 2-2 4 0 1-1 2-1 3-1 1-2 2-4 2-1 0-3-1-3-3-1-5 1-12 7-15 2-1 4-1 6-1 2 0 3-1 4-1 1-1 4-2 5-4 1-5-5-10-9-12-3-2-6-3-9-4-1 0-2 0-2 0-3 0-6 0-8 0-5 0-10 0-14-1-4 0-9-1-13-1-2 0-4 0-5 0-7 1-12 3-16 6-1 0-1 1-2 2 0 0 0 1 0 2-1 0-1 0-1 1 5 3 7 9 8 13 2 5 4 10 9 13 3 1 5 1 9 1l5 0c1 0 3 0 5 0 4 1 7 1 9 3 2 1 2 3 4 4 0 1 0 1 1 2 1 1 1 2 0 3 0 1-1 2-3 2 0 0-1 0-2-1-1-1-2-1-2-2-2-2-3-3-4-3-3 0-5 0-7 0l-5 0c-1 0-2 0-3 0-4 0-9 0-13-3-3-2-5-4-7-6-2-2-3-5-3-7l-1-1c0-1-1-2-1-3 0-2-1-4-2-5 0 2 0 4 0 6 0 6 0 12-1 17 0 4 0 7-1 11l1 0 0 2c0 2 1 5 1 6 2 5 4 9 7 13 3 3 5 5 9 6 0 0 1 0 1 0 5 0 8-4 10-8 4-5 9-8 15-8 0 0 1 0 2 0 2 1 4 1 6 1 2 1 5 2 8 2 1 0 2 0 3-1 3-1 5-2 5-6 1-3 1-6 1-9l0-3c0-2 1-3 3-3 1 0 3 1 3 3 0 2 0 3 1 5 1 4 1 8 0 12-1 2-2 4-4 6 0 0 1 0 3 0 1 0 2 0 2 1 2 0 4 1 7 2 5 3 9 6 11 10 2 4 4 8 4 13 1 2 1 4 1 6l0 0c0 1 0 2 0 3 0 1-1 2-1 2-1 1-2 2-3 2-2 0-3-1-4-2 0 0 0-1-1-3l0-2c0-2 0-4 0-5-1-5-2-8-4-11-1-2-2-3-4-5-1 0-2-1-3-1-1-1-3-1-3-2-1 0-2 0-2-1-3-1-7-2-8-5-2 0-4 1-7 1-4 0-8-1-12-2-2 0-3 0-4 0-1 0-2 0-3 0-2 1-3 3-4 5-1 0-1 1-2 1-3 4-7 9-14 9-1 0-1 0-2 0-9 0-14-5-18-10 0 3 0 6 0 9 0 3 0 5-1 6 0 2-1 4-1 5 0 3 0 6 1 9 1 2 2 4 5 6 3 2 6 3 11 4 2 1 6 1 8 1 1 0 3 0 4 0 4-1 7-3 11-6 1-1 3-3 4-4 1-2 3-3 4-4 7-7 15-8 23-8 2 0 3 1 3 3 1 1 0 3-2 3 0 2-1 2-2 3-4 1-7 1-10 3-3 2-5 4-7 7l-2 1c-1 1-2 2-3 3 3 0 5 0 6 1 5 1 8 3 12 5 0 0 2 1 2 1l1 0c2 1 5 3 7 3 1 0 2 0 3 0 1 0 1 0 2 0 3 0 5-1 6-1 1-1 2-1 4-1 0 0 0 0 0 0 2 0 3 1 3 3 0 1-1 2-2 3 0 0 0 0-1 0 0 1-2 2-2 2-2 1-4 1-7 2-2 0-3 0-4 0-4 0-7 0-10-1-2-1-5-3-7-4-2-1-5-3-8-3-3-1-6-2-9-2-2 0-3 0-4 0-2 0-3 0-4 0-4 0-5 1-6 1-1 0-2 0-3 0-1 0-1 0-2 0-3 0-8 0-12-2 0 1 0 2 0 3 2 4 4 10 4 14 1 4 2 8 2 12 3 0 6 1 9 3 5 2 8 5 11 9 3 4 5 7 9 10 2 2 7 6 6 11-1 3-2 8-6 10 0 1-1 1-2 1-1 0-2-1-2-2-1-1-1-2 0-3l0-2c1-2 3-5 3-6 0-2-2-3-4-4-1-1-1-1-2-2-3-2-5-5-6-7-3-3-5-6-8-8-3-1-5-1-7-1-4 0-7 2-9 5-2 1-2 3-3 4-1 2-2 3-3 4l0 1c0 1 0 1-1 1 2 6 6 9 12 13 10 4 25 8 34 8 17 0 27-7 33-11 3-2 6-3 8-3 0 0 1 0 2 0 0 0 0 0 1 0-1-1-1-2-2-3-4-5-10-8-14-9-3-1-6-2-10-2l-2 0c-2 0-5-1-7-1-2 0-3-2-3-3 0-2 1-3 2-3 3-1 6-1 8-1-2-3-5-6-7-10l0 0c-1-3-3-6-3-10 0-1 2-3 4-3 1 0 2 0 3 2 1 2 2 4 3 6 0 1 1 3 2 4 2 3 4 6 7 8 2 2 4 3 6 5 1 0 2 1 3 1l1 0c1 1 3 2 4 3 6 4 10 7 13 12 0 0 0 1 0 1 0-2 1-2 1-2l0 0 1 0c3 0 6 0 8 0 26 0 34-15 38-23 0 0 0 0 0 0 0-1-1-2-1-2-1 0-2 0-4 0 0 0-1 0-2 0-3 0-5 0-8 1-5 1-10 3-16 3l-2 0c-6 0-10 0-14-2-5-1-10-3-12-7-1-1-1-2 0-3 0-2 2-2 3-2 0 0 1 0 1 0 2 1 3 2 4 2 1 1 2 2 3 2 2 1 5 2 7 2 3 0 7 1 9 1 3 0 5-1 7-1 2 0 4 0 6-1 3-1 6-2 10-3 0 0 1 0 1 0-1-1-1-2-2-3-1-3-3-7-2-12 0-1 1-2 3-2 2 0 3 1 3 2 1 2 1 2 1 4 1 1 1 2 2 3 0 2 2 3 3 5 1 2 2 4 4 5 0 1 1 1 1 2 10-6 18-12 26-18 4-4 8-8 12-12 6-8 11-16 14-25 0 0-1 0-1 0-1 0-2 0-3 0-3 0-5 0-6-1-3-1-5-4-8-6l-1-1c-1-2-1-3 0-4 0-2 1-2 3-2 0 0 1 0 1 0 1 0 2 2 4 3 1 1 4 3 4 3 1 0 3 0 4 0 1 0 1 0 2 0 0 0 1 0 1 0 1 0 3 0 4 0 1 0 1 0 1 0 10-10 15-28 13-44z m-59-104c0 1 0 3 0 4 0 1 0 2 0 3 0 1 0 2 1 4 0 2 0 4 0 7-1 8-1 12 6 14 4 1 9 3 12 6 1 1 2 3 3 4 1 1 1 1 2 2l0 1c1 1 2 2 3 4 1 4 3 11 0 16-2 2-4 3-7 3-2 0-3-1-4-3 0-2 1-3 3-4 1 0 2 0 2 0 0-1 0-5-1-8-1-1-2-2-3-4-1-1-1-2-2-2 0 0 0-1-1-1-1 0-2 1-3 1-2 2-3 4-4 7 0 3 0 6 0 8 0 2 1 5 2 8 0 1 0 2 0 4 2 4 2 14-2 21-3 7-10 11-18 12-4 1-8 2-13 3-3 1-7 2-10 4-4 2-8 9-7 14 1 3 2 5 4 8 1 1 2 3 2 5 1 0 2 1 2 1 1 0 2 0 4 0 0 0 2 0 2 0 4-1 6-1 10-1 1 0 2 0 3 0 5 1 10 3 13 6 0-3 0-6 1-9 1-7 4-12 7-15 3-2 6-4 9-5 3-1 5-2 7-4 2-3 3-6 3-8 0-2 0-4 0-5l0-1c-1-2-1-3-1-5-2-9-1-15 4-17 2-1 5-1 7-1 6 0 12 2 19 8 3 3 6 6 8 9 4-8 7-16 4-28-2-3-5-6-9-9-1-1-1-1-2-2-3-2-4-4-7-5-2-1-5-2-8-3-7-4-10-12-13-20-3-10-6-20-18-23-4-1-7-3-10-4z m62 27c-3 1-6 2-9 3 0 0-2 0-3 0-4 0-8-1-12-2 1 2 2 4 3 5 2 3 5 4 8 6 0 1 1 1 2 1 0 1 1 1 2 1 3 2 5 4 8 5 0-1 0-2 0-3 0-3 0-5 0-7 1-3 1-6 1-9z"/>
<glyph unicode="&#103;" d="M391 447c-4 22-11 44-20 65-1 0-1 0-1 0 6-17 11-34 13-52 1-14 1-28 0-41 0-14-2-28-5-41-5-27-17-54-33-77-1-1-2-3-4-5-3-5-6-11-9-17-9-14-19-28-30-42-11-13-23-26-34-39 0 0 0-1 0-1 20 15 46 31 63 50 24 27 43 58 54 93 10 34 12 71 6 107z m-30 25c-14-72-65-112-124-155-29-21-59-41-83-68-12-13-23-29-29-46-5-15-7-30-6-46-1-3-1-6-2-9-3-21-1-43 4-63 6-29 18-56 32-82 0 0 0 0 1-1-5 2-8 6-10 10 0 1 0 2-1 2-21 45-45 88-45 137 0 203 260 174 260 349 0 2 0 3 1 5 0 0 0 1 1 1 0-1 0-1 0-2 1-11 2-22 1-32z m-162-390c9 17 21 32 33 47 12 14 26 27 40 40l42 37c14 13 27 26 39 40 12 15 25 39 29 58 3 10 5 17 6 23-5-14-11-27-19-39-9-16-21-31-33-44-23-24-51-43-80-60-7-8-14-16-21-24-22-26-41-55-52-87-8-23-11-47-11-72 1 0 3 1 3 2 1 8 3 17 5 25 4 19 10 37 19 54z m148 277c-11-19-23-37-37-54-27-34-58-65-86-98-4-4-8-9-12-14 2 2 3 4 5 5 20 19 43 36 63 53 22 17 42 35 57 56 16 22 27 47 33 73 3 13 5 26 6 39 1 14 2 27 1 41 0 13-3 27-6 40-1 4-2 8-3 12-1 0-1-1-2-1 3-8 5-17 6-25 4-22 3-44-2-66-4-21-12-42-23-61z m-106-48c-34-25-61-43-83-66-13-12-22-33-29-49-3-8-4-15-5-21 3 11 9 22 16 32 11 18 26 34 42 47 16 13 33 25 51 37 17 11 35 22 52 34 2 2 4 3 6 4 19 18 37 37 50 60 12 21 19 45 20 70-13-65-78-117-120-148z m133-85c-78-105-173-111-195-219 0-1 0-1 0-1 0-1-1-1-1-2 0 1 0 2 0 2 5 26 14 51 27 73 18 32 44 59 72 84 27 26 57 49 81 80 11 15 21 32 27 50 4 13 6 27 6 41 0 2 1 3 1 4 6 18 9 36 9 55 1 18 0 37-4 55-5 22-12 43-22 63 0 0 0 0-1 0 2 0 2-1 3-2 0 0 1-1 1-1 57-104 39-225-4-282z m-205-203c0 18 3 35 8 52 5 16 13 32 22 47 9 15 19 29 30 42 23 27 47 51 69 77 11 12 21 25 30 39-12-14-26-27-40-38-22-17-44-33-63-52-10-9-19-18-27-29-8-11-15-22-20-34-11-25-15-52-15-79 0-16 1-32 3-48 0 0-1 0-2 0-1 3-1 5-2 8-2 13-4 27-4 41-1 27 2 55 12 81 2 6 5 12 8 18 1 3 3 6 5 9 10 19 23 37 37 54 27 34 58 64 85 98 13 17 26 34 36 53 11 19 19 39 24 60 5 21 6 42 4 63-1 9-3 17-5 25-1 0-1-1-2-1 0-1 0-1 1-1 2-14 4-28 4-42 0-14-1-28-4-41-4-14-8-27-15-40-13-25-33-46-53-65-20-19-42-36-62-54-21-18-40-37-55-59-7-11-13-23-18-36-5-13-8-26-10-39-4-27-3-54 2-81 2-17 6-34 11-51-1 0-2 1-3 1-5 16-10 32-14 49-6 27-8 55-5 83 3 28 13 55 28 79 15 24 36 44 56 62 10 9 20 17 30 26-6-5-13-9-20-14-16-12-33-24-48-37-16-14-30-28-41-46-11-16-19-36-22-56-3-20-2-40 2-61 4-20 11-40 19-59 3-8 7-17 11-26 0 0-1 1-2 1 5-2 11-3 16-2-1 8-1 16-1 23z"/>
<glyph unicode="&#104;" d="M302 108c-4 12-9 22-19 27l-1 0c-3 2-9 5-17 3l0 0c-8-3-10-9-12-13l-1-1c-5-11-1-24 5-40-32-18-82-15-116 11-6 5-11 10-16 16-9 11-15 25-17 41-43 11-46 91-13 96-9 23-8 44-1 63 15-12 32-21 44-8l0 1c12 14-2 32-17 45 41 38 111 50 134 16 22 10 45 5 66-8 12-8 23-19 32-32 17-25 24-56 11-82 30-41-5-118-62-135z m203 95c-6-3-10 2-15 9-3 6-5 13-10 18-12 13-46 2-62 4-2 1-4 2-6 3-2 1-4 4-4 6 0 0 0 1 0 2 1 1 2 3 4 4 9 11 54 0 65 17 4 6 5 13 7 20 4 8 8 14 13 12 1 0 1-1 2-1 1-1 2-2 3-3 3-9-13-31-11-45 2-16 26-40 14-46z m-424-110c0-11-32-25-31-41 1-5 4-10 5-14 2-6 3-11 0-13 0 0-1-1-2-1-6-2-8 5-10 14-2 6-4 14-9 18-4 4-13 7-19 9-7 3-13 7-11 11 0 0 0 1 0 1 1 4 7 3 13 1 5-2 9-5 15-6 15-3 31 28 43 28 0 0 2 0 3 0 1 0 2 0 2-1 1-1 1-2 1-3 1-1 1-2 0-3z m48 218c-1-2-5-2-8-2-6 0-13 6-21 13-3 2-6 5-9 7-11 11-23 20-34 18-7-1-14-7-21-9-6-3-11-4-15-3-2 0-3 1-4 3-1 1-1 2-1 2-4 14 33 16 44 31 10 14 10 49 23 48 1 0 1 0 2 0 3-1 5-4 5-7 1-4 0-8-1-13-2-6-6-14-6-22-1-11 10-21 21-30 3-2 6-5 9-7 9-7 16-14 17-20 0-3 1-7-1-9z m222 178c0-5-5-7-12-8-5-1-11-1-16-3-15-6-13-42-23-48-2 0-3-2-4-2 0 0-2 0-2 0-2 0-3 3-4 4 0 1-1 2-1 3-2 12 15 39 6 51-3 4-9 7-12 11-6 4-9 9-6 13 8 9 21-16 35-18 10-3 27 4 35 2 2-1 3-2 4-4 0 0 0-1 0-1z m-10-437c-7 1-16-1-24 2-13 4-19 23-24 40-1 4-2 8-4 11-3 9-6 16-11 18-3 2-6 4-9 3-2-1-4-5-5-7-3-6 0-15 4-26 2-4 3-8 4-11 6-16 12-32 5-42-4-7-12-12-17-17-8-8-12-15-7-20 11-12 31 22 49 30 19 8 56-11 57 7 0 8-7 10-18 12z"/>
</font></defs></svg>
