<?xml version="1.0" encoding="utf-8"?>
<!-- Generator: Adobe Illustrator 18.1.0, SVG Export Plug-In . SVG Version: 6.00 Build 0)  -->
<svg version="1.1" id="Layer_1" xmlns="http://www.w3.org/2000/svg" xmlns:xlink="http://www.w3.org/1999/xlink" x="0px" y="0px"
	 viewBox="0 0 373.9 226.3" enable-background="new 0 0 373.9 226.3" xml:space="preserve">
<path fill-rule="evenodd" clip-rule="evenodd" fill="#4C413C" d="M306.1,18.5c17.6-2.2,45.6,8.9,51.1,26.6
	c5.5,17.9-1.2,40.4-22.1,32.7c-2.5-0.9-4.4-0.2-5.7,1.4c1.1,1.6,2.1,3.2,3,4.9c3.4,6.6,4.6,14.3,2.2,21.8c-0.4,1.2-0.8,2.3-1.4,3.3
	c2.4,1.7,4.8,1.7,6.5-0.6c7.8-11.4,13.4-10.7,21.8-18.2c12.7-11.4,15-28.7,9.9-45.5c-8.3-27-41-46.8-68.2-44.7
	C295.8,1.3,299.7,19.8,306.1,18.5L306.1,18.5z"/>
<path fill-rule="evenodd" clip-rule="evenodd" fill="#4C413C" d="M180.7,220.4c0.4,7.9,12.1,7.9,12.5,0c0.4-15.1-4.8-34,2.6-44.3
	c18.2-25.1,41.2-38.5,53.8-114.8c4.5-23.2,20-36.6,38.7-44.9c-0.4-1.3-0.7-2.6-1-4c-0.3-1.7-0.5-3.5-0.5-5.1
	c-33.4,8.3-49.7,35.1-99.8,35.1c-50.1,0-66.4-26.8-99.8-35.1c0,1.7-0.2,3.4-0.5,5.1c-0.3,1.4-0.6,2.8-1,4
	c18.7,8.3,34.2,21.6,38.7,44.9C137,137.6,160,151,178.1,176.1C185.5,186.3,180.3,205.3,180.7,220.4L180.7,220.4z"/>
<path fill-rule="evenodd" clip-rule="evenodd" fill="#4C413C" d="M108.9,53.3c-5.3,4.9-9.9,10.6-12.9,14.9
	c-10.7,13.7-19.6,3.5-33.1,11c-8,4.4-14.5,14.2-11.7,23.1c2.7,8.6,24,11.2,32.4,2.2c7.2-7.8,5.9-23.3,15.5-33.4
	c2.9-3,7.7-5.9,13-8.3C111.2,59.2,110.2,56.1,108.9,53.3L108.9,53.3z"/>
<path fill-rule="evenodd" clip-rule="evenodd" fill="#4C413C" d="M67.7,18.5c6.5,1.3,10.4-17.2,3-18.4C43.6-2,10.9,17.9,2.5,44.9
	c-5.1,16.8-2.8,34.2,9.9,45.5c8.4,7.5,13.9,6.8,21.8,18.2c1.6,2.3,4.1,2.3,6.5,0.6c-0.6-1.1-1.1-2.2-1.4-3.3
	c-2.4-7.5-1.1-15.2,2.2-21.8c0.9-1.7,1.9-3.3,3-4.9c-1.3-1.7-3.2-2.4-5.7-1.4C17.9,85.5,11.2,63,16.7,45.1
	C22.1,27.4,50.1,16.3,67.7,18.5L67.7,18.5z"/>
<path fill-rule="evenodd" clip-rule="evenodd" fill="#4C413C" d="M265,53.3c-1.3,2.9-2.3,6-3.1,9.4c5.2,2.4,10.1,5.3,13,8.3
	c9.6,10.1,8.3,25.7,15.5,33.4c8.3,9,29.7,6.5,32.4-2.2c2.8-8.8-3.8-18.7-11.7-23.1c-13.5-7.5-22.3,2.7-33.1-11
	C274.9,63.9,270.3,58.1,265,53.3z"/>
</svg>
