<?xml version="1.0" encoding="utf-8"?>
<!-- Generator: Adobe Illustrator 18.1.0, SVG Export Plug-In . SVG Version: 6.00 Build 0)  -->
<svg version="1.1" id="Isolation_Mode" xmlns="http://www.w3.org/2000/svg" xmlns:xlink="http://www.w3.org/1999/xlink" x="0px"
	 y="0px" viewBox="0 0 71.5 53.4" enable-background="new 0 0 71.5 53.4" xml:space="preserve">
<path fill-rule="evenodd" clip-rule="evenodd" fill="#4B403B" d="M35.7,27.6c2.3,0,4.7,0.2,7,0.7v-5.8c-0.6-0.2-1.3-0.4-2-0.6
	c-2.3-0.7-2.2-2.8-2.2-7.5V1.5c0-2-5.7-2-5.7,0v12.8c0,4.7,0.1,6.8-2.2,7.5c-0.7,0.2-1.3,0.4-2,0.6v5.8
	C31.1,27.8,33.4,27.6,35.7,27.6L35.7,27.6z"/>
<path fill-rule="evenodd" clip-rule="evenodd" fill="#4B403B" d="M50.2,9.8c-2.9-0.1-4.7,1.5-4.7,4.7v30.8c0,3.4,1.7,5.3,4.7,5.7
	l15.9,2.4c2.7,0.4,5.1-1.1,5.3-4.6C71.7,28.2,57.8,10,50.2,9.8L50.2,9.8z"/>
<path fill-rule="evenodd" clip-rule="evenodd" fill="#4B403B" d="M21.2,9.8C13.7,10-0.2,28.2,0,48.7c0.2,3.5,2.6,5,5.3,4.6l15.9-2.4
	c3-0.4,4.7-2.3,4.7-5.7V14.4C25.9,11.3,24.1,9.7,21.2,9.8z"/>
</svg>
